{
	"easycom": {
		"^u-(.*)": "components/u-$1/u-$1.vue"
	},
	"pages": [ 
		{
			"path": "pages/index/index",
			"style": {
				"navigationStyle": "custom",
				"enablePullDownRefresh": true,
				"reachBottomDistance": 50,
				"navigationBarBackgroundColor":"#E8443D",
				"backgroundColor": "#F2F2F3"
			}
		},
		{
			"path": "pages/discounts/index",
			"style": {
				"navigationBarTitleText": "美味不用等"
			}
		},
		{
			"path": "pages/my/index",
			"style": {
				"navigationBarTitleText": "我的",
				"mp-weixin":{
					"usingComponents": {
						"mp-dialog": "weui-miniprogram/dialog/dialog"
					  }
				}
			}
		},
		{
			"path": "pages/webview/index",
			"style": {
				"navigationBarTitleText": "美味不用等"
			}
		},
		{
			"path": "pages/goodinfo/index",
			"style": {
				"navigationBarTitleText": ""
			}
		},
		{
			"path": "pages/coupons/index",
			"style": {
				"navigationBarTitleText": "优惠券"
			}
		},
		{
			"path": "pages/collection/index",
			"style": {
				"navigationBarTitleText": "收藏"
			}
		},
		{
			"path": "pages/couponsdetail/index",
			"style": {
				"navigationBarTitleText": "优惠券详情",
				"navigationBarBackgroundColor":"#E8443D"
			}
		}
		
	],
	"window":{
		
	},
	"globalStyle": {
		"navigationBarTextStyle": "black",
		"navigationBarTitleText": "uni-app",
		"navigationBarBackgroundColor": "#F8F8F8",
		"backgroundColor": "#F8F8F8"
	},
	"setting":{
		"checkSiteMap":false
	},
	"tabBar":{
		"color":"#000",
		"selectedColor":"#C90000",
		"list":[{
			"pagePath": "pages/index/index",
			"text": "首页",
			"iconPath":"/static/home.png",
			"selectedIconPath":"/static/homered.png"
		},
		{
			"pagePath": "pages/discounts/index",
			"text": "大牌优惠",
			"iconPath":"/static/huo.png",
			"selectedIconPath":"/static/huo.png"
		},
		{
			"pagePath": "pages/my/index",
			"text": "我的",
			"iconPath":"/static/my.png",
			"selectedIconPath":"/static/myred.png"
		}]
	}
}
